<?xml version="1.0" encoding="utf-8"?>
<!-- Generator: Adobe Illustrator 16.0.0, SVG Export Plug-In . SVG Version: 6.00 Build 0)  -->
<!DOCTYPE svg PUBLIC "-//W3C//DTD SVG 1.1//EN" "http://www.w3.org/Graphics/SVG/1.1/DTD/svg11.dtd">
<svg version="1.1"
	 id="layer1" inkscape:version="0.48.3.1 r9886" sodipodi:docname="Mute_Icon.svg" xmlns:inkscape="http://www.inkscape.org/namespaces/inkscape" xmlns:svg="http://www.w3.org/2000/svg" xmlns:dc="http://purl.org/dc/elements/1.1/" xmlns:cc="http://creativecommons.org/ns#" xmlns:rdf="http://www.w3.org/1999/02/22-rdf-syntax-ns#" xmlns:sodipodi="http://sodipodi.sourceforge.net/DTD/sodipodi-0.dtd"
	 xmlns="http://www.w3.org/2000/svg" xmlns:xlink="http://www.w3.org/1999/xlink" x="0px" y="0px" width="400px" height="400px"
	 viewBox="0 0 400 400" enable-background="new 0 0 400 400" xml:space="preserve">
<sodipodi:namedview  inkscape:pageopacity="0" inkscape:window-width="1920" inkscape:guide-bbox="true" inkscape:window-maximized="1" inkscape:snap-smooth-nodes="false" inkscape:object-paths="false" inkscape:window-x="-8" inkscape:current-layer="g1" inkscape:window-height="1028" inkscape:pageshadow="2" inkscape:window-y="-8" borderopacity="1" showguides="true" guidetolerance="10" id="namedview3005" showgrid="false" inkscape:zoom="0.649" inkscape:cy="171.8348" inkscape:cx="-282.4196" pagecolor="#ffffff" objecttolerance="10" bordercolor="#666666" gridtolerance="10">
	<sodipodi:guide  id="guide3009" orientation="0,1" position="42.491779,326.85984"></sodipodi:guide>
	<sodipodi:guide  id="guide3011" orientation="0,1" position="118.64407,164.86903"></sodipodi:guide>
	<sodipodi:guide  id="guide3005" orientation="1,0" position="324.34515,194.53005"></sodipodi:guide>
	<sodipodi:guide  id="guide3007" orientation="1,0" position="462.63482,170.64715"></sodipodi:guide>
</sodipodi:namedview>
<g id="g1">
	<polygon id="polygon1" fill="#ffffff" stroke="#ffffff" stroke-width="5" stroke-linejoin="round" points="210.074,73.435 
		118.587,152.565 32,152.565 32,254.395 117.275,254.395 210.074,334.667 	"/>
	
		<path id="path3003" sodipodi:nodetypes="cc" inkscape:connector-curvature="0" fill="none" stroke="#ffffff" stroke-width="5" stroke-linecap="round" d="
		M259.477,268.105l110.631-129.593"/>
	
		<path id="path3003-1" sodipodi:nodetypes="cc" inkscape:connector-curvature="0" fill="none" stroke="#ffffff" stroke-width="5" stroke-linecap="round" d="
		M370.107,268.105L259.477,138.512"/>
</g>
</svg>
