<?xml version="1.0" encoding="utf-8"?>
<!-- Generator: Adobe Illustrator 16.0.0, SVG Export Plug-In . SVG Version: 6.00 Build 0)  -->
<!DOCTYPE svg PUBLIC "-//W3C//DTD SVG 1.1//EN" "http://www.w3.org/Graphics/SVG/1.1/DTD/svg11.dtd">
<svg version="1.1" id="Layer_1" xmlns="http://www.w3.org/2000/svg" xmlns:xlink="http://www.w3.org/1999/xlink" x="0px" y="0px"
	 width="17.32px" height="11.392px" viewBox="0 0 17.32 11.392" enable-background="new 0 0 17.32 11.392" xml:space="preserve">
<g>
	<defs>
		<rect id="SVGID_1_" y="0" width="17.32" height="11.392"/>
	</defs>
	<clipPath id="SVGID_2_">
		<use xlink:href="#SVGID_1_"  overflow="visible"/>
	</clipPath>
	<path clip-path="url(#SVGID_2_)" fill-rule="evenodd" clip-rule="evenodd" fill="#FFFFFF" d="M0.66,0.5h16v10.392h-16V0.5z
		 M1.399,10.411h14.522c-1.882-1.543-3.72-3.048-5.559-4.554C9.779,6.333,9.223,6.788,8.66,7.248
		C8.083,6.777,7.522,6.32,6.956,5.858C5.111,7.369,3.278,8.872,1.399,10.411 M1.828,0.986C4.143,2.882,6.399,4.73,8.661,6.584
		c2.271-1.862,4.522-3.708,6.828-5.598H1.828z M6.55,5.522C4.734,4.036,2.951,2.575,1.142,1.093v8.859
		C2.959,8.464,4.745,7.002,6.55,5.522 M16.172,9.948V1.097c-1.816,1.488-3.6,2.95-5.401,4.426
		C12.577,7.004,14.358,8.463,16.172,9.948"/>
	<path clip-path="url(#SVGID_2_)" fill="#B22020" stroke="#FFFFFF" stroke-miterlimit="10" d="M0.66,0.5h16v10.392h-16V0.5z
		 M1.399,10.411h14.522c-1.882-1.543-3.72-3.048-5.559-4.554C9.779,6.333,9.223,6.788,8.66,7.248
		C8.083,6.777,7.522,6.32,6.956,5.858C5.111,7.369,3.278,8.872,1.399,10.411z M1.828,0.986C4.143,2.882,6.399,4.73,8.661,6.584
		c2.271-1.862,4.522-3.708,6.828-5.598H1.828z M6.55,5.522C4.734,4.036,2.951,2.575,1.142,1.093v8.859
		C2.959,8.464,4.745,7.002,6.55,5.522z M16.172,9.948V1.097c-1.816,1.488-3.6,2.95-5.401,4.426
		C12.577,7.004,14.358,8.463,16.172,9.948z"/>
</g>
</svg>
