<?xml version="1.0" encoding="utf-8"?>
<!-- Generator: Adobe Illustrator 16.0.0, SVG Export Plug-In . SVG Version: 6.00 Build 0)  -->
<!DOCTYPE svg PUBLIC "-//W3C//DTD SVG 1.1//EN" "http://www.w3.org/Graphics/SVG/1.1/DTD/svg11.dtd">
<svg version="1.1" id="Layer_1" xmlns="http://www.w3.org/2000/svg" xmlns:xlink="http://www.w3.org/1999/xlink" x="0px" y="0px"
	 width="15.925px" height="16px" viewBox="0 0 15.925 16" enable-background="new 0 0 15.925 16" xml:space="preserve">
<g>
	<defs>
		<rect id="SVGID_1_" width="15.925" height="16"/>
	</defs>
	<clipPath id="SVGID_2_">
		<use xlink:href="#SVGID_1_"  overflow="visible"/>
	</clipPath>
	<path clip-path="url(#SVGID_2_)" fill="#FFFFFF" d="M7.946,15.995c-1.268,0-2.536,0.013-3.804-0.003
		c-2.475-0.028-4.132-1.709-4.138-4.189c-0.006-2.536-0.006-5.072,0-7.608c0.007-2.497,1.703-4.183,4.216-4.19
		c2.492-0.006,4.983-0.006,7.476,0c2.557,0.006,4.228,1.684,4.229,4.235c0.001,2.513,0.001,5.027,0,7.541
		c-0.002,2.523-1.646,4.188-4.174,4.213C10.482,16.006,9.215,15.995,7.946,15.995 M1.493,6.837c0,1.739-0.011,3.417,0.003,5.094
		c0.012,1.478,0.991,2.567,2.477,2.597c2.666,0.053,5.335,0.057,8.001-0.003c1.525-0.034,2.456-1.12,2.461-2.664
		c0.004-1.355,0.001-2.711,0.001-4.067V6.854h-2.897c0.558,1.845,0.319,3.477-1.297,4.648c-1.26,0.914-2.679,1-4.018,0.224
		C4.317,10.62,3.952,8.882,4.546,6.837H1.493z M14.436,5.362c0-0.341-0.021-0.6,0.003-0.854c0.193-2.112-1.297-3.106-3.023-3.06
		c-2.359,0.063-4.722,0.034-7.082,0.01c-2.079-0.02-3.289,1.518-2.709,3.904c1.34,0,2.693,0.006,4.045-0.008
		C5.831,5.353,6,5.256,6.148,5.174C7.399,4.498,8.65,4.508,9.911,5.146c0.173,0.087,0.357,0.204,0.538,0.207
		C11.736,5.371,13.023,5.362,14.436,5.362 M8.044,9.999C8.903,10,9.646,9.257,9.629,8.412C9.611,7.588,8.882,6.87,8.059,6.865
		C7.199,6.862,6.474,7.601,6.487,8.464C6.501,9.312,7.196,9.998,8.044,9.999"/>
	<path clip-path="url(#SVGID_2_)" fill="#FFFFFF" d="M13.301,3.498c0,1.115,0,1.115-1.114,1.115c-1.108,0-1.108,0-1.107-1.177
		c0.001-1.072,0.001-1.072,1.164-1.071C13.291,2.366,13.301,2.376,13.301,3.498"/>
</g>
</svg>
