<?xml version="1.0" encoding="utf-8"?>
<!-- Generator: Adobe Illustrator 16.0.0, SVG Export Plug-In . SVG Version: 6.00 Build 0)  -->
<!DOCTYPE svg PUBLIC "-//W3C//DTD SVG 1.1//EN" "http://www.w3.org/Graphics/SVG/1.1/DTD/svg11.dtd">
<svg version="1.1" xmlns="http://www.w3.org/2000/svg" xmlns:xlink="http://www.w3.org/1999/xlink" x="0px" y="0px" width="80px"
	 height="88px" viewBox="0 0 80 88" enable-background="new 0 0 80 88" xml:space="preserve">
	 
 <filter id="dropshadow">
	 <feGaussianBlur in="SourceAlpha" stdDeviation="3"/> 
	 <feOffset dx="2" dy="2"/>
	 <feComponentTransfer>
		 <feFuncA type="linear" slope="0.2"/>
	 </feComponentTransfer>
	 <feMerge> 
		 <feMergeNode/>
		 <feMergeNode in="SourceGraphic"/> 
	 </feMerge>
 </filter>
	
<g id="Layer_1">
	<g filter="url(#dropshadow)">
		<g>
			<g>
				<path fill-rule="evenodd" clip-rule="evenodd" fill="#FFFFFF" d="M62.5,10h-45c-2.485,0-4.5,1.992-4.5,4.45v44.5
					c0,2.458,2.015,4.45,4.5,4.45h12.732L41,82l8.811-18.6H62.5c2.485,0,4.5-1.992,4.5-4.45v-44.5C67,11.992,64.985,10,62.5,10z
					 M62.75,55.814c0,1.911-1.566,3.461-3.5,3.461h-38.5c-1.933,0-3.5-1.55-3.5-3.461L17,17c0-1.912,2.067-3,4-3l38.25,0.125
					c1.934,0,3.5,1.549,3.5,3.461V55.814z"/>
			</g>
		</g>
	</g>
</g>
<g id="Layer_2">
	<g>
		<g>
			<path fill-rule="evenodd" clip-rule="evenodd" fill="#EB6624" d="M28,24v25h25V24H28z M48,44H33V29h15V44z M43,34h-5v5h5V34z"/>
		</g>
	</g>
</g>
</svg>
